…
```r
#The data is not tidy. It's in long format.
```

3. We are only interested in the variables site, date, and enterococci_cfu_100ml. Make a new object focused on these variables only. Name the object `sydneybeaches_long`

```r
sydneybeaches_long <- sydneybeaches %>%
  select(site, date, enterococci_cfu_100ml)
sydneybeaches_long
```

```
## # A tibble: 3,690 × 3
##    site           date       enterococci_cfu_100ml
##    <chr>          <chr>                      <dbl>
##  1 Clovelly Beach 02/01/2013                    19
##  2 Clovelly Beach 06/01/2013                     3
##  3 Clovelly Beach 12/01/2013                     2
##  4 Clovelly Beach 18/01/2013                    13
##  5 Clovelly Beach 30/01/2013                     8
##  6 Clovelly Beach 05/02/2013                     7
##  7 Clovelly Beach 11/02/2013                    11
##  8 Clovelly Beach 23/02/2013                    97
##  9 Clovelly Beach 07/03/2013                     3
## 10 Clovelly Beach 25/03/2013                     0
## # … with 3,680 more rows
```
…
5. Pivot the data back so that the dates are data and not column names.

```r
sydneybeaches_wide %>%
  pivot_longer(-site,
               names_to = "date",
               values_to = "enterococci_cfu_100ml")
```

```
## # A tibble: 3,784 × 3
##    site           date       enterococci_cfu_100ml
##    <chr>          <chr>                      <dbl>
##  1 Clovelly Beach 02/01/2013                    19
##  2 Clovelly Beach 06/01/2013                     3
##  3 Clovelly Beach 12/01/2013                     2
##  4 Clovelly Beach 18/01/2013                    13
##  5 Clovelly Beach 30/01/2013                     8
##  6 Clovelly Beach 05/02/2013                     7
##  7 Clovelly Beach 11/02/2013                    11
##  8 Clovelly Beach 23/02/2013                    97
##  9 Clovelly Beach 07/03/2013                     3
## 10 Clovelly Beach 25/03/2013                     0
## # … with 3,774 more rows
```

6. We haven't dealt much with dates yet, but separate the date into columns day, month, and year. Do this on the `sydneybeaches_long` data.

```r
sydneybeaches_separate <- sydneybeaches_long %>%
  separate(date, into=c("day", "month", "year"), sep="/")
sydneybeaches_separate
```

```
## # A tibble: 3,690 × 5
##    site           day   month year  enterococci_cfu_100ml
##    <chr>          <chr> <chr> <chr>                 <dbl>
##  1 Clovelly Beach 02    01    2013                     19
##  2 Clovelly Beach 06    01    2013                      3
##  3 Clovelly Beach 12    01    2013                      2
##  4 Clovelly Beach 18    01    2013                     13
##  5 Clovelly Beach 30    01    2013                      8
##  6 Clovelly Beach 05    02    2013                      7
##  7 Clovelly Beach 11    02    2013                     11
##  8 Clovelly Beach 23    02    2013                     97
##  9 Clovelly Beach 07    03    2013                      3
## 10 Clovelly Beach 25    03    2013                      0
## # … with 3,680 more rows
```

7. What is the average `enterococci_cfu_100ml` by year for each beach. Think about which data you will use- long or wide.

```r
sydneybeaches_separate %>%
  pivot_wider(names_from = "year",
              values_from = "enterococci_cfu_100ml")
```

```
## # A tibble: 2,656 × 9
##    site           day   month `2013` `2014` `2015` `2016` `2017` `2018`
##    <chr>          <chr> <chr>  <dbl>  <dbl>  <dbl>  <dbl>  <dbl>  <dbl>
##  1 Clovelly Beach 02    01        19     NA     NA     NA     NA     NA
##  2 Clovelly Beach 06    01         3     NA     NA     NA     NA     NA
##  3 Clovelly Beach 12    01         2     NA     NA     NA     NA     NA
##  4 Clovelly Beach 18    01        13     NA     NA     NA     NA     NA
##  5 Clovelly Beach 30    01         8     NA     NA     NA      8     NA
##  6 Clovelly Beach 05    02         7     NA     NA     NA     NA     NA
##  7 Clovelly Beach 11    02        11     NA     NA     NA     NA     NA
##  8 Clovelly Beach 23    02        97     NA     NA     NA     NA     NA
##  9 Clovelly Beach 07    03         3     NA     NA     NA     NA     NA
## 10 Clovelly Beach 25    03         0     NA     11     NA     NA     NA
## # … with 2,646 more rows
```
…
