…
The variable `ccsmort30rate` is a measure of the overall 30-day mortality rate associated with each type of operation. The variable `ccscomplicationrate` is a measure of the 30-day in-hospital complication rate. The variable `ahrq_ccs` lists each type of operation.

7. (4 points) What are the 5 procedures associated with highest risk of 30-day mortality AND how do they compare with the 5 procedures with highest risk of complication? (hint: no need for a plot here)

```r
surgery %>%
  select(ccsmort30rate, ahrq_ccs) %>%
  group_by(ahrq_ccs) %>%
  summarise(mean_mort=mean(ccsmort30rate))
```

```
## # A tibble: 23 × 2
##    ahrq_ccs                                             mean_mort
##    <chr>                                                    <dbl>
##  1 <Other>                                               0.00425 
##  2 Arthroplasty knee                                     0.00296 
##  3 Colorectal resection                                  0.0167  
##  4 Endoscopy and endoscopic biopsy of the urinary tract  0.00811 
##  5 Gastrectomy; partial and total                        0.0127  
##  6 Genitourinary incontinence procedures                 0.00433 
##  7 Hip replacement; total and partial                    0.00740 
##  8 Hysterectomy; abdominal and vaginal                   0.00196 
##  9 Inguinal and femoral hernia repair                    0       
## 10 Laminectomy; excision intervertebral disc             0.000789
## # … with 13 more rows
```


```r
surgery %>%
  select(ccsmort30rate, ahrq_ccs) %>%
  group_by(ahrq_ccs) %>%
  summarise(mean_mort=mean(ccsmort30rate))
```

```
## # A tibble: 23 × 2
##    ahrq_ccs                                             mean_mort
##    <chr>                                                    <dbl>
##  1 <Other>                                               0.00425 
##  2 Arthroplasty knee                                     0.00296 
##  3 Colorectal resection                                  0.0167  
##  4 Endoscopy and endoscopic biopsy of the urinary tract  0.00811 
##  5 Gastrectomy; partial and total                        0.0127  
##  6 Genitourinary incontinence procedures                 0.00433 
##  7 Hip replacement; total and partial                    0.00740 
##  8 Hysterectomy; abdominal and vaginal                   0.00196 
##  9 Inguinal and femoral hernia repair                    0       
## 10 Laminectomy; excision intervertebral disc             0.000789
## # … with 13 more rows
```
…
