…
2. Notice that we have some neutral superheros! Who are they?

```r
filter(superhero_info, alignment=="neutral")
```

```
## # A tibble: 24 × 10
##    name       gender eye_c…¹ race  hair_…² height publi…³ skin_…⁴ align…⁵ weight
##    <chr>      <chr>  <chr>   <chr> <chr>    <dbl> <chr>   <chr>   <chr>    <dbl>
##  1 Bizarro    Male   black   Biza… Black      191 DC Com… white   neutral    155
##  2 Black Fla… Male   <NA>    God … <NA>        NA DC Com… <NA>    neutral     NA
##  3 Captain C… Male   brown   Human Brown       NA DC Com… <NA>    neutral     NA
##  4 Copycat    Female red     Muta… White      183 Marvel… blue    neutral     67
##  5 Deadpool   Male   brown   Muta… No Hair    188 Marvel… <NA>    neutral     95
##  6 Deathstro… Male   blue    Human White      193 DC Com… <NA>    neutral    101
##  7 Etrigan    Male   red     Demon No Hair    193 DC Com… yellow  neutral    203
##  8 Galactus   Male   black   Cosm… Black      876 Marvel… <NA>    neutral     16
##  9 Gladiator  Male   blue    Stro… Blue       198 Marvel… purple  neutral    268
## 10 Indigo     Female <NA>    Alien Purple      NA DC Com… <NA>    neutral     NA
## # … with 14 more rows, and abbreviated variable names ¹​eye_color, ²​hair_color,
## #   ³​publisher, ⁴​skin_color, ⁵​alignment
```

## `superhero_info`
3. Let's say we are only interested in the variables name, alignment, and "race". How would you isolate these variables from `superhero_info`?

```r
select(superhero_info, "name", "alignment", "race")
```

```
## # A tibble: 734 × 3
##    name          alignment race             
##    <chr>         <chr>     <chr>            
##  1 A-Bomb        good      Human            
##  2 Abe Sapien    good      Icthyo Sapien    
##  3 Abin Sur      good      Ungaran          
##  4 Abomination   bad       Human / Radiation
##  5 Abraxas       bad       Cosmic Entity    
##  6 Absorbing Man bad       Human            
##  7 Adam Monroe   good      <NA>             
##  8 Adam Strange  good      Human            
##  9 Agent 13      good      <NA>             
## 10 Agent Bob     good      Human            
## # … with 724 more rows
```

## Not Human
4. List all of the superheros that are not human.

```r
filter(superhero_info, race!="Human")
```

```
## # A tibble: 222 × 10
##    name       gender eye_c…¹ race  hair_…² height publi…³ skin_…⁴ align…⁵ weight
##    <chr>      <chr>  <chr>   <chr> <chr>    <dbl> <chr>   <chr>   <chr>    <dbl>
##  1 Abe Sapien Male   blue    Icth… No Hair    191 Dark H… blue    good        65
##  2 Abin Sur   Male   blue    Unga… No Hair    185 DC Com… red     good        90
##  3 Abominati… Male   green   Huma… No Hair    203 Marvel… <NA>    bad        441
##  4 Abraxas    Male   blue    Cosm… Black       NA Marvel… <NA>    bad         NA
##  5 Ajax       Male   brown   Cybo… Black      193 Marvel… <NA>    bad         90
##  6 Alien      Male   <NA>    Xeno… No Hair    244 Dark H… black   bad        169
##  7 Amazo      Male   red     Andr… <NA>       257 DC Com… <NA>    bad        173
##  8 Angel      Male   <NA>    Vamp… <NA>        NA Dark H… <NA>    good        NA
##  9 Angel Dust Female yellow  Muta… Black      165 Marvel… <NA>    good        57
## 10 Anti-Moni… Male   yellow  God … No Hair     61 DC Com… <NA>    bad         NA
## # … with 212 more rows, and abbreviated variable names ¹​eye_color, ²​hair_color,
## #   ³​publisher, ⁴​skin_color, ⁵​alignment
```
…
9. OK, so are there more good guys or bad guys that are bald (personal interest)?

```r
filter(good_superhero, hair_color=="No Hair")
```

```
## # A tibble: 37 × 10
##    name       gender eye_c…¹ race  hair_…² height publi…³ skin_…⁴ align…⁵ weight
##    <chr>      <chr>  <chr>   <chr> <chr>    <dbl> <chr>   <chr>   <chr>    <dbl>
##  1 A-Bomb     Male   yellow  Human No Hair    203 Marvel… <NA>    good       441
##  2 Abe Sapien Male   blue    Icth… No Hair    191 Dark H… blue    good        65
##  3 Abin Sur   Male   blue    Unga… No Hair    185 DC Com… red     good        90
##  4 Beta Ray … Male   <NA>    <NA>  No Hair    201 Marvel… <NA>    good       216
##  5 Bishop     Male   brown   Muta… No Hair    198 Marvel… <NA>    good       124
##  6 Black Lig… Male   brown   <NA>  No Hair    185 DC Com… <NA>    good        90
##  7 Blaquesmi… <NA>   black   <NA>  No Hair     NA Marvel… <NA>    good        NA
##  8 Bloodhawk  Male   black   Muta… No Hair     NA Marvel… <NA>    good        NA
##  9 Crimson D… Male   brown   <NA>  No Hair    180 Marvel… <NA>    good       104
## 10 Donatello  Male   green   Muta… No Hair     NA IDW Pu… green   good        NA
## # … with 27 more rows, and abbreviated variable names ¹​eye_color, ²​hair_color,
## #   ³​publisher, ⁴​skin_color, ⁵​alignment
```

```r
filter(bad_superhero, hair_color=="No Hair")
```

```
## # A tibble: 35 × 10
##    name       gender eye_c…¹ race  hair_…² height publi…³ skin_…⁴ align…⁵ weight
##    <chr>      <chr>  <chr>   <chr> <chr>    <dbl> <chr>   <chr>   <chr>    <dbl>
##  1 Abominati… Male   green   Huma… No Hair  203   Marvel… <NA>    bad        441
##  2 Absorbing… Male   blue    Human No Hair  193   Marvel… <NA>    bad        122
##  3 Alien      Male   <NA>    Xeno… No Hair  244   Dark H… black   bad        169
##  4 Annihilus  Male   green   <NA>  No Hair  180   Marvel… <NA>    bad         90
##  5 Anti-Moni… Male   yellow  God … No Hair   61   DC Com… <NA>    bad         NA
##  6 Black Man… Male   black   Human No Hair  188   DC Com… <NA>    bad         92
##  7 Bloodwrai… Male   white   <NA>  No Hair   30.5 Marvel… <NA>    bad         NA
##  8 Brainiac   Male   green   Andr… No Hair  198   DC Com… green   bad        135
##  9 Darkseid   Male   red     New … No Hair  267   DC Com… grey    bad        817
## 10 Darth Vad… Male   yellow  Cybo… No Hair  198   George… <NA>    bad        135
## # … with 25 more rows, and abbreviated variable names ¹​eye_color, ²​hair_color,
## #   ³​publisher, ⁴​skin_color, ⁵​alignment
```

10. Let's explore who the really "big" superheros are. In the `superhero_info` data, which have a height over 200 or weight greater than or equal to 450?

```r
filter(superhero_info, height>200|weight>=450)
```

```
## # A tibble: 60 × 10
##    name       gender eye_c…¹ race  hair_…² height publi…³ skin_…⁴ align…⁵ weight
##    <chr>      <chr>  <chr>   <chr> <chr>    <dbl> <chr>   <chr>   <chr>    <dbl>
##  1 A-Bomb     Male   yellow  Human No Hair    203 Marvel… <NA>    good       441
##  2 Abominati… Male   green   Huma… No Hair    203 Marvel… <NA>    bad        441
##  3 Alien      Male   <NA>    Xeno… No Hair    244 Dark H… black   bad        169
##  4 Amazo      Male   red     Andr… <NA>       257 DC Com… <NA>    bad        173
##  5 Ant-Man    Male   blue    Human Blond      211 Marvel… <NA>    good       122
##  6 Anti-Venom Male   blue    Symb… Blond      229 Marvel… <NA>    <NA>       358
##  7 Apocalypse Male   red     Muta… Black      213 Marvel… grey    bad        135
##  8 Bane       Male   <NA>    Human <NA>       203 DC Com… <NA>    bad        180
##  9 Beta Ray … Male   <NA>    <NA>  No Hair    201 Marvel… <NA>    good       216
## 10 Bloodaxe   Female blue    Human Brown      218 Marvel… <NA>    bad        495
## # … with 50 more rows, and abbreviated variable names ¹​eye_color, ²​hair_color,
## #   ³​publisher, ⁴​skin_color, ⁵​alignment
```
…
```r
# This is because we use "|", which means "or" and will select the characters that fulfill any of the conditions.
```

## Height to Weight Ratio
13. It's easy to be strong when you are heavy and tall, but who is heavy and short? Which superheros have the highest height to weight ratio?

```r
superhero_info %>%
  mutate(h_over_w=height/weight) %>%
  arrange(desc(h_over_w))
```

```
## # A tibble: 734 × 11
##    name       gender eye_c…¹ race  hair_…² height publi…³ skin_…⁴ align…⁵ weight
##    <chr>      <chr>  <chr>   <chr> <chr>    <dbl> <chr>   <chr>   <chr>    <dbl>
##  1 Groot      Male   yellow  Flor… <NA>       701 Marvel… <NA>    good         4
##  2 Galactus   Male   black   Cosm… Black      876 Marvel… <NA>    neutral     16
##  3 Fin Fang … Male   red     Kaka… No Hair    975 Marvel… green   good        18
##  4 Longshot   Male   blue    Human Blond      188 Marvel… <NA>    good        36
##  5 Jack-Jack  Male   blue    Human Brown       71 Dark H… <NA>    good        14
##  6 Rocket Ra… Male   brown   Anim… Brown      122 Marvel… <NA>    good        25
##  7 Dash       Male   blue    Human Blond      122 Dark H… <NA>    good        27
##  8 Howard th… Male   brown   <NA>  Yellow      79 Marvel… <NA>    good        18
##  9 Swarm      Male   yellow  Muta… No Hair    196 Marvel… yellow  bad         47
## 10 Yoda       Male   brown   Yoda… White       66 George… green   good        17
## # … with 724 more rows, 1 more variable: h_over_w <dbl>, and abbreviated
## #   variable names ¹​eye_color, ²​hair_color, ³​publisher, ⁴​skin_color, ⁵​alignment
```
…
14. How many superheros have a combination of accelerated healing, durability, and super strength?

```r
superhero_powers %>%
  filter(accelerated_healing=="TRUE") %>%
  filter(durability=="TRUE") %>%
  filter(super_strength=="TRUE")
```

```
## # A tibble: 97 × 168
##    hero_names   agility accele…¹ lante…² dimen…³ cold_…⁴ durab…⁵ stealth energ…⁶
##    <chr>        <lgl>   <lgl>    <lgl>   <lgl>   <lgl>   <lgl>   <lgl>   <lgl>  
##  1 A-Bomb       FALSE   TRUE     FALSE   FALSE   FALSE   TRUE    FALSE   FALSE  
##  2 Abe Sapien   TRUE    TRUE     FALSE   FALSE   TRUE    TRUE    FALSE   FALSE  
##  3 Angel        TRUE    TRUE     FALSE   FALSE   FALSE   TRUE    TRUE    FALSE  
##  4 Anti-Monitor FALSE   TRUE     FALSE   TRUE    FALSE   TRUE    FALSE   TRUE   
##  5 Anti-Venom   FALSE   TRUE     FALSE   FALSE   FALSE   TRUE    FALSE   FALSE  
##  6 Aquaman      TRUE    TRUE     FALSE   FALSE   TRUE    TRUE    TRUE    FALSE  
##  7 Arachne      TRUE    TRUE     FALSE   FALSE   FALSE   TRUE    FALSE   FALSE  
##  8 Archangel    TRUE    TRUE     FALSE   FALSE   FALSE   TRUE    FALSE   FALSE  
##  9 Ardina       TRUE    TRUE     FALSE   FALSE   TRUE    TRUE    FALSE   FALSE  
## 10 Ares         TRUE    TRUE     FALSE   FALSE   FALSE   TRUE    FALSE   FALSE  
## # … with 87 more rows, 159 more variables: flight <lgl>, danger_sense <lgl>,
## #   underwater_breathing <lgl>, marksmanship <lgl>, weapons_master <lgl>,
## #   power_augmentation <lgl>, animal_attributes <lgl>, longevity <lgl>,
## #   intelligence <lgl>, super_strength <lgl>, cryokinesis <lgl>,
## #   telepathy <lgl>, energy_armor <lgl>, energy_blasts <lgl>,
## #   duplication <lgl>, size_changing <lgl>, density_control <lgl>,
## #   stamina <lgl>, astral_travel <lgl>, audio_control <lgl>, dexterity <lgl>, …
```
…
